module BarkBark/barkbark

go 1.13

require (
	github.com/therecipe/qt v0.0.0-20200904063919-c0c124a5770d
	github.com/therecipe/qt/internal/binding/files/docs/5.12.0 v0.0.0-20200904063919-c0c124a5770d // indirect
	github.com/therecipe/qt/internal/binding/files/docs/5.13.0 v0.0.0-20200904063919-c0c124a5770d // indirect
)
